[
  {
    "package": "accountsservice",
    "arch": "amd64",
    "version": "0.6.55-0ubuntu12~20.04.5"
  },
  {
    "package": "adduser",
    "arch": "",
    "version": "3.118ubuntu2"
  },
  {
    "package": "alsa-topology-conf",
    "arch": "",
    "version": "1.2.2-1"
  },
  {
    "package": "alsa-ucm-conf",
    "arch": "",
    "version": "1.2.2-1ubuntu0.13"
  },
  {
    "package": "apparmor",
    "arch": "amd64",
    "version": "2.13.3-7ubuntu5.1"
  },
  {
    "package": "apport-symptoms",
    "arch": "",
    "version": "0.23"
  },
  {
    "package": "apport",
    "arch": "",
    "version": "2.20.11-0ubuntu27.25"
  },
  {
    "package": "apt-utils",
    "arch": "amd64",
    "version": "2.0.9"
  },
  {
    "package": "apt",
    "arch": "amd64",
    "version": "2.0.9"
  },
  {
    "package": "at",
    "arch": "amd64",
    "version": "3.1.23-1ubuntu1"
  },
  {
    "package": "base-files",
    "arch": "amd64",
    "version": "11ubuntu5.6"
  },
  {
    "package": "base-passwd",
    "arch": "amd64",
    "version": "3.5.47"
  },
  {
    "package": "bash-completion",
    "arch": "",
    "version": "1:2.10-1ubuntu1"
  },
  {
    "package": "bash",
    "arch": "amd64",
    "version": "5.0-6ubuntu1.2"
  },
  {
    "package": "bc",
    "arch": "amd64",
    "version": "1.07.1-2build1"
  },
  {
    "package": "bcache-tools",
    "arch": "amd64",
    "version": "1.0.8-3ubuntu0.1"
  },
  {
    "package": "bind9-dnsutils",
    "arch": "amd64",
    "version": "1:9.16.1-0ubuntu2.12"
  },
  {
    "package": "bind9-host",
    "arch": "amd64",
    "version": "1:9.16.1-0ubuntu2.12"
  },
  {
    "package": "bind9-libs",
    "arch": "amd64",
    "version": "1:9.16.1-0ubuntu2.12"
  },
  {
    "package": "bolt",
    "arch": "amd64",
    "version": "0.9.1-2~ubuntu20.04.1"
  },
  {
    "package": "bsdmainutils",
    "arch": "amd64",
    "version": "11.1.2ubuntu3"
  },
  {
    "package": "bsdutils",
    "arch": "amd64",
    "version": "1:2.34-0.1ubuntu9.3"
  },
  {
    "package": "btrfs-progs",
    "arch": "amd64",
    "version": "5.4.1-2"
  },
  {
    "package": "busybox-initramfs",
    "arch": "amd64",
    "version": "1:1.30.1-4ubuntu6.4"
  },
  {
    "package": "busybox-static",
    "arch": "amd64",
    "version": "1:1.30.1-4ubuntu6.4"
  },
  {
    "package": "byobu",
    "arch": "",
    "version": "5.133-0ubuntu1"
  },
  {
    "package": "bzip2",
    "arch": "amd64",
    "version": "1.0.8-2"
  },
  {
    "package": "ca-certificates",
    "arch": "",
    "version": "20211016ubuntu0.20.04.1"
  },
  {
    "package": "chrony",
    "arch": "amd64",
    "version": "3.5-6ubuntu6.2"
  },
  {
    "package": "cifs-utils",
    "arch": "amd64",
    "version": "2:6.9-1ubuntu0.2"
  },
  {
    "package": "cloud-guest-utils",
    "arch": "",
    "version": "0.31-7-gd99b2d76-0ubuntu1"
  },
  {
    "package": "cloud-init",
    "arch": "",
    "version": "22.4.2-0ubuntu0~20.04.2"
  },
  {
    "package": "cloud-initramfs-copymods",
    "arch": "",
    "version": "0.45ubuntu2"
  },
  {
    "package": "cloud-initramfs-dyn-netconf",
    "arch": "",
    "version": "0.45ubuntu2"
  },
  {
    "package": "command-not-found",
    "arch": "",
    "version": "20.04.6"
  },
  {
    "package": "console-setup-linux",
    "arch": "",
    "version": "1.194ubuntu3"
  },
  {
    "package": "console-setup",
    "arch": "",
    "version": "1.194ubuntu3"
  },
  {
    "package": "coreutils",
    "arch": "amd64",
    "version": "8.30-3ubuntu2"
  },
  {
    "package": "cpio",
    "arch": "amd64",
    "version": "2.13+dfsg-2ubuntu0.3"
  },
  {
    "package": "cron",
    "arch": "amd64",
    "version": "3.0pl1-136ubuntu1"
  },
  {
    "package": "cryptsetup-bin",
    "arch": "amd64",
    "version": "2:2.2.2-3ubuntu2.4"
  },
  {
    "package": "cryptsetup-initramfs",
    "arch": "",
    "version": "2:2.2.2-3ubuntu2.4"
  },
  {
    "package": "cryptsetup-run",
    "arch": "",
    "version": "2:2.2.2-3ubuntu2.4"
  },
  {
    "package": "cryptsetup",
    "arch": "amd64",
    "version": "2:2.2.2-3ubuntu2.4"
  },
  {
    "package": "curl",
    "arch": "amd64",
    "version": "7.68.0-1ubuntu2.16"
  },
  {
    "package": "dash",
    "arch": "amd64",
    "version": "0.5.10.2-6"
  },
  {
    "package": "dbus-user-session",
    "arch": "amd64",
    "version": "1.12.16-2ubuntu2.3"
  },
  {
    "package": "dbus",
    "arch": "amd64",
    "version": "1.12.16-2ubuntu2.3"
  },
  {
    "package": "dconf-gsettings-backend",
    "arch": "amd64",
    "version": "0.36.0-1"
  },
  {
    "package": "dconf-service",
    "arch": "amd64",
    "version": "0.36.0-1"
  },
  {
    "package": "debconf-i18n",
    "arch": "",
    "version": "1.5.73"
  },
  {
    "package": "debconf",
    "arch": "",
    "version": "1.5.73"
  },
  {
    "package": "debianutils",
    "arch": "amd64",
    "version": "4.9.1"
  },
  {
    "package": "diffutils",
    "arch": "amd64",
    "version": "1:3.7-3"
  },
  {
    "package": "dirmngr",
    "arch": "amd64",
    "version": "2.2.19-3ubuntu2.2"
  },
  {
    "package": "distro-info-data",
    "arch": "",
    "version": "0.43ubuntu1.11"
  },
  {
    "package": "distro-info",
    "arch": "amd64",
    "version": "0.23ubuntu1"
  },
  {
    "package": "dmeventd",
    "arch": "amd64",
    "version": "2:1.02.167-1ubuntu1"
  },
  {
    "package": "dmidecode",
    "arch": "amd64",
    "version": "3.2-3"
  },
  {
    "package": "dmsetup",
    "arch": "amd64",
    "version": "2:1.02.167-1ubuntu1"
  },
  {
    "package": "dosfstools",
    "arch": "amd64",
    "version": "4.1-2"
  },
  {
    "package": "dpkg",
    "arch": "amd64",
    "version": "1.19.7ubuntu3.2"
  },
  {
    "package": "e2fsprogs",
    "arch": "amd64",
    "version": "1.45.5-2ubuntu1.1"
  },
  {
    "package": "eatmydata",
    "arch": "",
    "version": "105-7"
  },
  {
    "package": "ed",
    "arch": "amd64",
    "version": "1.16-1"
  },
  {
    "package": "efibootmgr",
    "arch": "amd64",
    "version": "17-1"
  },
  {
    "package": "eject",
    "arch": "amd64",
    "version": "2.1.5+deb1+cvs20081104-14"
  },
  {
    "package": "ethtool",
    "arch": "amd64",
    "version": "1:5.4-1"
  },
  {
    "package": "fdisk",
    "arch": "amd64",
    "version": "2.34-0.1ubuntu9.3"
  },
  {
    "package": "file",
    "arch": "amd64",
    "version": "1:5.38-4"
  },
  {
    "package": "finalrd",
    "arch": "",
    "version": "6~ubuntu20.04.1"
  },
  {
    "package": "findutils",
    "arch": "amd64",
    "version": "4.7.0-1ubuntu1"
  },
  {
    "package": "fonts-ubuntu-console",
    "arch": "",
    "version": "0.83-4ubuntu1"
  },
  {
    "package": "friendly-recovery",
    "arch": "",
    "version": "0.2.41ubuntu0.20.04.1"
  },
  {
    "package": "ftp",
    "arch": "amd64",
    "version": "0.17-34.1"
  },
  {
    "package": "fuse",
    "arch": "amd64",
    "version": "2.9.9-3"
  },
  {
    "package": "fwupd-signed",
    "arch": "amd64",
    "version": "1.51~20.04.1+1.2-3ubuntu0.2"
  },
  {
    "package": "fwupd",
    "arch": "amd64",
    "version": "1.7.9-1~20.04.1"
  },
  {
    "package": "gawk",
    "arch": "amd64",
    "version": "1:5.0.1+dfsg-1"
  },
  {
    "package": "gcc-10-base",
    "arch": "amd64",
    "version": "10.3.0-1ubuntu1~20.04"
  },
  {
    "package": "gdisk",
    "arch": "amd64",
    "version": "1.0.5-1"
  },
  {
    "package": "gettext-base",
    "arch": "amd64",
    "version": "0.19.8.1-10build1"
  },
  {
    "package": "gir1.2-glib-2.0",
    "arch": "amd64",
    "version": "1.64.1-1~ubuntu20.04.1"
  },
  {
    "package": "gir1.2-packagekitglib-1.0",
    "arch": "amd64",
    "version": "1.1.13-2ubuntu1.1"
  },
  {
    "package": "git-man",
    "arch": "",
    "version": "1:2.25.1-1ubuntu3.10"
  },
  {
    "package": "git",
    "arch": "amd64",
    "version": "1:2.25.1-1ubuntu3.10"
  },
  {
    "package": "glib-networking-common",
    "arch": "",
    "version": "2.64.2-1ubuntu0.1"
  },
  {
    "package": "glib-networking-services",
    "arch": "amd64",
    "version": "2.64.2-1ubuntu0.1"
  },
  {
    "package": "glib-networking",
    "arch": "amd64",
    "version": "2.64.2-1ubuntu0.1"
  },
  {
    "package": "gnupg-l10n",
    "arch": "",
    "version": "2.2.19-3ubuntu2.2"
  },
  {
    "package": "gnupg-utils",
    "arch": "amd64",
    "version": "2.2.19-3ubuntu2.2"
  },
  {
    "package": "gnupg",
    "arch": "",
    "version": "2.2.19-3ubuntu2.2"
  },
  {
    "package": "gpg-agent",
    "arch": "amd64",
    "version": "2.2.19-3ubuntu2.2"
  },
  {
    "package": "gpg-wks-client",
    "arch": "amd64",
    "version": "2.2.19-3ubuntu2.2"
  },
  {
    "package": "gpg-wks-server",
    "arch": "amd64",
    "version": "2.2.19-3ubuntu2.2"
  },
  {
    "package": "gpg",
    "arch": "amd64",
    "version": "2.2.19-3ubuntu2.2"
  },
  {
    "package": "gpgconf",
    "arch": "amd64",
    "version": "2.2.19-3ubuntu2.2"
  },
  {
    "package": "gpgsm",
    "arch": "amd64",
    "version": "2.2.19-3ubuntu2.2"
  },
  {
    "package": "gpgv",
    "arch": "amd64",
    "version": "2.2.19-3ubuntu2.2"
  },
  {
    "package": "grep",
    "arch": "amd64",
    "version": "3.4-1"
  },
  {
    "package": "groff-base",
    "arch": "amd64",
    "version": "1.22.4-4build1"
  },
  {
    "package": "grub-common",
    "arch": "amd64",
    "version": "2.04-1ubuntu26.16"
  },
  {
    "package": "grub-efi-amd64-bin",
    "arch": "amd64",
    "version": "2.06-2ubuntu14.1"
  },
  {
    "package": "grub-efi-amd64-signed",
    "arch": "amd64",
    "version": "1.187.3~20.04.1+2.06-2ubuntu14.1"
  },
  {
    "package": "grub-gfxpayload-lists",
    "arch": "amd64",
    "version": "0.7"
  },
  {
    "package": "grub-pc-bin",
    "arch": "amd64",
    "version": "2.04-1ubuntu26.16"
  },
  {
    "package": "grub-pc",
    "arch": "amd64",
    "version": "2.04-1ubuntu26.16"
  },
  {
    "package": "grub2-common",
    "arch": "amd64",
    "version": "2.04-1ubuntu26.16"
  },
  {
    "package": "gsettings-desktop-schemas",
    "arch": "",
    "version": "3.36.0-1ubuntu1"
  },
  {
    "package": "gzip",
    "arch": "amd64",
    "version": "1.10-0ubuntu4.1"
  },
  {
    "package": "hdparm",
    "arch": "amd64",
    "version": "9.58+ds-4"
  },
  {
    "package": "hostname",
    "arch": "amd64",
    "version": "3.23"
  },
  {
    "package": "htop",
    "arch": "amd64",
    "version": "2.2.0-2build1"
  },
  {
    "package": "info",
    "arch": "amd64",
    "version": "6.7.0.dfsg.2-5"
  },
  {
    "package": "init-system-helpers",
    "arch": "",
    "version": "1.57"
  },
  {
    "package": "init",
    "arch": "amd64",
    "version": "1.57"
  },
  {
    "package": "initramfs-tools-bin",
    "arch": "amd64",
    "version": "0.136ubuntu6.7"
  },
  {
    "package": "initramfs-tools-core",
    "arch": "",
    "version": "0.136ubuntu6.7"
  },
  {
    "package": "initramfs-tools",
    "arch": "",
    "version": "0.136ubuntu6.7"
  },
  {
    "package": "install-info",
    "arch": "amd64",
    "version": "6.7.0.dfsg.2-5"
  },
  {
    "package": "iproute2",
    "arch": "amd64",
    "version": "5.5.0-1ubuntu1"
  },
  {
    "package": "iptables",
    "arch": "amd64",
    "version": "1.8.4-3ubuntu2"
  },
  {
    "package": "iputils-ping",
    "arch": "amd64",
    "version": "3:20190709-3"
  },
  {
    "package": "iputils-tracepath",
    "arch": "amd64",
    "version": "3:20190709-3"
  },
  {
    "package": "irqbalance",
    "arch": "amd64",
    "version": "1.6.0-3ubuntu1"
  },
  {
    "package": "isc-dhcp-client",
    "arch": "amd64",
    "version": "4.4.1-2.1ubuntu5.20.04.5"
  },
  {
    "package": "isc-dhcp-common",
    "arch": "amd64",
    "version": "4.4.1-2.1ubuntu5.20.04.5"
  },
  {
    "package": "iso-codes",
    "arch": "",
    "version": "4.4-1"
  },
  {
    "package": "kbd",
    "arch": "amd64",
    "version": "2.0.4-4ubuntu2"
  },
  {
    "package": "keyboard-configuration",
    "arch": "",
    "version": "1.194ubuntu3"
  },
  {
    "package": "keyutils",
    "arch": "amd64",
    "version": "1.6-6ubuntu1.1"
  },
  {
    "package": "klibc-utils",
    "arch": "amd64",
    "version": "2.0.7-1ubuntu5.1"
  },
  {
    "package": "kmod",
    "arch": "amd64",
    "version": "27-1ubuntu2.1"
  },
  {
    "package": "kpartx",
    "arch": "amd64",
    "version": "0.8.3-1ubuntu2.1"
  },
  {
    "package": "krb5-locales",
    "arch": "",
    "version": "1.17-6ubuntu4.2"
  },
  {
    "package": "landscape-common",
    "arch": "amd64",
    "version": "19.12-0ubuntu4.3"
  },
  {
    "package": "language-selector-common",
    "arch": "",
    "version": "0.204.2"
  },
  {
    "package": "less",
    "arch": "amd64",
    "version": "551-1ubuntu0.1"
  },
  {
    "package": "libaccountsservice0",
    "arch": "amd64",
    "version": "0.6.55-0ubuntu12~20.04.5"
  },
  {
    "package": "libacl1",
    "arch": "amd64",
    "version": "2.2.53-6"
  },
  {
    "package": "libaio1",
    "arch": "amd64",
    "version": "0.3.112-5"
  },
  {
    "package": "libapparmor1",
    "arch": "amd64",
    "version": "2.13.3-7ubuntu5.1"
  },
  {
    "package": "libappstream4",
    "arch": "amd64",
    "version": "0.12.10-2"
  },
  {
    "package": "libapt-pkg6.0",
    "arch": "amd64",
    "version": "2.0.9"
  },
  {
    "package": "libarchive13",
    "arch": "amd64",
    "version": "3.4.0-2ubuntu1.2"
  },
  {
    "package": "libargon2-1",
    "arch": "amd64",
    "version": "0~20171227-0.2"
  },
  {
    "package": "libasn1-8-heimdal",
    "arch": "amd64",
    "version": "7.7.0+dfsg-1ubuntu1.4"
  },
  {
    "package": "libasound2-data",
    "arch": "",
    "version": "1.2.2-2.1ubuntu2.5"
  },
  {
    "package": "libasound2",
    "arch": "amd64",
    "version": "1.2.2-2.1ubuntu2.5"
  },
  {
    "package": "libassuan0",
    "arch": "amd64",
    "version": "2.5.3-7ubuntu2"
  },
  {
    "package": "libatasmart4",
    "arch": "amd64",
    "version": "0.19-5"
  },
  {
    "package": "libatm1",
    "arch": "amd64",
    "version": "1:2.5.1-4"
  },
  {
    "package": "libattr1",
    "arch": "amd64",
    "version": "1:2.4.48-5"
  },
  {
    "package": "libaudit-common",
    "arch": "",
    "version": "1:2.8.5-2ubuntu6"
  },
  {
    "package": "libaudit1",
    "arch": "amd64",
    "version": "1:2.8.5-2ubuntu6"
  },
  {
    "package": "libblkid1",
    "arch": "amd64",
    "version": "2.34-0.1ubuntu9.3"
  },
  {
    "package": "libblockdev-crypto2",
    "arch": "amd64",
    "version": "2.23-2ubuntu3"
  },
  {
    "package": "libblockdev-fs2",
    "arch": "amd64",
    "version": "2.23-2ubuntu3"
  },
  {
    "package": "libblockdev-loop2",
    "arch": "amd64",
    "version": "2.23-2ubuntu3"
  },
  {
    "package": "libblockdev-part-err2",
    "arch": "amd64",
    "version": "2.23-2ubuntu3"
  },
  {
    "package": "libblockdev-part2",
    "arch": "amd64",
    "version": "2.23-2ubuntu3"
  },
  {
    "package": "libblockdev-swap2",
    "arch": "amd64",
    "version": "2.23-2ubuntu3"
  },
  {
    "package": "libblockdev-utils2",
    "arch": "amd64",
    "version": "2.23-2ubuntu3"
  },
  {
    "package": "libblockdev2",
    "arch": "amd64",
    "version": "2.23-2ubuntu3"
  },
  {
    "package": "libbrotli1",
    "arch": "amd64",
    "version": "1.0.7-6ubuntu0.1"
  },
  {
    "package": "libbsd0",
    "arch": "amd64",
    "version": "0.10.0-1"
  },
  {
    "package": "libbz2-1.0",
    "arch": "amd64",
    "version": "1.0.8-2"
  },
  {
    "package": "libc-bin",
    "arch": "amd64",
    "version": "2.31-0ubuntu9.9"
  },
  {
    "package": "libc6",
    "arch": "amd64",
    "version": "2.31-0ubuntu9.9"
  },
  {
    "package": "libcanberra0",
    "arch": "amd64",
    "version": "0.30-7ubuntu1"
  },
  {
    "package": "libcap-ng0",
    "arch": "amd64",
    "version": "0.7.9-2.1build1"
  },
  {
    "package": "libcap2-bin",
    "arch": "amd64",
    "version": "1:2.32-1"
  },
  {
    "package": "libcap2",
    "arch": "amd64",
    "version": "1:2.32-1"
  },
  {
    "package": "libcbor0.6",
    "arch": "amd64",
    "version": "0.6.0-0ubuntu1"
  },
  {
    "package": "libcom-err2",
    "arch": "amd64",
    "version": "1.45.5-2ubuntu1.1"
  },
  {
    "package": "libcrypt1",
    "arch": "amd64",
    "version": "1:4.4.10-10ubuntu4"
  },
  {
    "package": "libcryptsetup12",
    "arch": "amd64",
    "version": "2:2.2.2-3ubuntu2.4"
  },
  {
    "package": "libcurl3-gnutls",
    "arch": "amd64",
    "version": "7.68.0-1ubuntu2.16"
  },
  {
    "package": "libcurl4",
    "arch": "amd64",
    "version": "7.68.0-1ubuntu2.16"
  },
  {
    "package": "libdb5.3",
    "arch": "amd64",
    "version": "5.3.28+dfsg1-0.6ubuntu2"
  },
  {
    "package": "libdbus-1-3",
    "arch": "amd64",
    "version": "1.12.16-2ubuntu2.3"
  },
  {
    "package": "libdconf1",
    "arch": "amd64",
    "version": "0.36.0-1"
  },
  {
    "package": "libdebconfclient0",
    "arch": "amd64",
    "version": "0.251ubuntu1"
  },
  {
    "package": "libdevmapper-event1.02.1",
    "arch": "amd64",
    "version": "2:1.02.167-1ubuntu1"
  },
  {
    "package": "libdevmapper1.02.1",
    "arch": "amd64",
    "version": "2:1.02.167-1ubuntu1"
  },
  {
    "package": "libdns-export1109",
    "arch": "amd64",
    "version": "1:9.11.16+dfsg-3~ubuntu1"
  },
  {
    "package": "libdrm-common",
    "arch": "",
    "version": "2.4.107-8ubuntu1~20.04.2"
  },
  {
    "package": "libdrm2",
    "arch": "amd64",
    "version": "2.4.107-8ubuntu1~20.04.2"
  },
  {
    "package": "libdw1",
    "arch": "amd64",
    "version": "0.176-1.1build1"
  },
  {
    "package": "libeatmydata1",
    "arch": "amd64",
    "version": "105-7"
  },
  {
    "package": "libedit2",
    "arch": "amd64",
    "version": "3.1-20191231-1"
  },
  {
    "package": "libefiboot1",
    "arch": "amd64",
    "version": "37-2ubuntu2.2"
  },
  {
    "package": "libefivar1",
    "arch": "amd64",
    "version": "37-2ubuntu2.2"
  },
  {
    "package": "libelf1",
    "arch": "amd64",
    "version": "0.176-1.1build1"
  },
  {
    "package": "liberror-perl",
    "arch": "",
    "version": "0.17029-1"
  },
  {
    "package": "libestr0",
    "arch": "amd64",
    "version": "0.1.10-2.1"
  },
  {
    "package": "libevent-2.1-7",
    "arch": "amd64",
    "version": "2.1.11-stable-1"
  },
  {
    "package": "libexpat1",
    "arch": "amd64",
    "version": "2.2.9-1ubuntu0.6"
  },
  {
    "package": "libext2fs2",
    "arch": "amd64",
    "version": "1.45.5-2ubuntu1.1"
  },
  {
    "package": "libfastjson4",
    "arch": "amd64",
    "version": "0.99.8-2"
  },
  {
    "package": "libfdisk1",
    "arch": "amd64",
    "version": "2.34-0.1ubuntu9.3"
  },
  {
    "package": "libffi7",
    "arch": "amd64",
    "version": "3.3-4"
  },
  {
    "package": "libfido2-1",
    "arch": "amd64",
    "version": "1.3.1-1ubuntu2"
  },
  {
    "package": "libfl2",
    "arch": "amd64",
    "version": "2.6.4-6.2"
  },
  {
    "package": "libfreetype6",
    "arch": "amd64",
    "version": "2.10.1-2ubuntu0.2"
  },
  {
    "package": "libfribidi0",
    "arch": "amd64",
    "version": "1.0.8-2ubuntu0.1"
  },
  {
    "package": "libfuse2",
    "arch": "amd64",
    "version": "2.9.9-3"
  },
  {
    "package": "libfwupd2",
    "arch": "amd64",
    "version": "1.7.9-1~20.04.1"
  },
  {
    "package": "libfwupdplugin1",
    "arch": "amd64",
    "version": "1.5.11-0ubuntu1~20.04.2"
  },
  {
    "package": "libfwupdplugin5",
    "arch": "amd64",
    "version": "1.7.9-1~20.04.1"
  },
  {
    "package": "libgcab-1.0-0",
    "arch": "amd64",
    "version": "1.4-1"
  },
  {
    "package": "libgcc-s1",
    "arch": "amd64",
    "version": "10.3.0-1ubuntu1~20.04"
  },
  {
    "package": "libgcrypt20",
    "arch": "amd64",
    "version": "1.8.5-5ubuntu1.1"
  },
  {
    "package": "libgdbm-compat4",
    "arch": "amd64",
    "version": "1.18.1-5"
  },
  {
    "package": "libgdbm6",
    "arch": "amd64",
    "version": "1.18.1-5"
  },
  {
    "package": "libgirepository-1.0-1",
    "arch": "amd64",
    "version": "1.64.1-1~ubuntu20.04.1"
  },
  {
    "package": "libglib2.0-0",
    "arch": "amd64",
    "version": "2.64.6-1~ubuntu20.04.4"
  },
  {
    "package": "libglib2.0-bin",
    "arch": "amd64",
    "version": "2.64.6-1~ubuntu20.04.4"
  },
  {
    "package": "libglib2.0-data",
    "arch": "",
    "version": "2.64.6-1~ubuntu20.04.4"
  },
  {
    "package": "libgmp10",
    "arch": "amd64",
    "version": "2:6.2.0+dfsg-4ubuntu0.1"
  },
  {
    "package": "libgnutls30",
    "arch": "amd64",
    "version": "3.6.13-2ubuntu1.8"
  },
  {
    "package": "libgpg-error0",
    "arch": "amd64",
    "version": "1.37-1"
  },
  {
    "package": "libgpgme11",
    "arch": "amd64",
    "version": "1.13.1-7ubuntu2"
  },
  {
    "package": "libgpm2",
    "arch": "amd64",
    "version": "1.20.7-5"
  },
  {
    "package": "libgssapi-krb5-2",
    "arch": "amd64",
    "version": "1.17-6ubuntu4.2"
  },
  {
    "package": "libgssapi3-heimdal",
    "arch": "amd64",
    "version": "7.7.0+dfsg-1ubuntu1.4"
  },
  {
    "package": "libgstreamer1.0-0",
    "arch": "amd64",
    "version": "1.16.3-0ubuntu1.1"
  },
  {
    "package": "libgudev-1.0-0",
    "arch": "amd64",
    "version": "1:233-1"
  },
  {
    "package": "libgusb2",
    "arch": "amd64",
    "version": "0.3.4-0.1"
  },
  {
    "package": "libhcrypto4-heimdal",
    "arch": "amd64",
    "version": "7.7.0+dfsg-1ubuntu1.4"
  },
  {
    "package": "libheimbase1-heimdal",
    "arch": "amd64",
    "version": "7.7.0+dfsg-1ubuntu1.4"
  },
  {
    "package": "libheimntlm0-heimdal",
    "arch": "amd64",
    "version": "7.7.0+dfsg-1ubuntu1.4"
  },
  {
    "package": "libhogweed5",
    "arch": "amd64",
    "version": "3.5.1+really3.5.1-2ubuntu0.2"
  },
  {
    "package": "libhx509-5-heimdal",
    "arch": "amd64",
    "version": "7.7.0+dfsg-1ubuntu1.4"
  },
  {
    "package": "libicu66",
    "arch": "amd64",
    "version": "66.1-2ubuntu2.1"
  },
  {
    "package": "libidn2-0",
    "arch": "amd64",
    "version": "2.2.0-2"
  },
  {
    "package": "libip4tc2",
    "arch": "amd64",
    "version": "1.8.4-3ubuntu2"
  },
  {
    "package": "libip6tc2",
    "arch": "amd64",
    "version": "1.8.4-3ubuntu2"
  },
  {
    "package": "libisc-export1105",
    "arch": "amd64",
    "version": "1:9.11.16+dfsg-3~ubuntu1"
  },
  {
    "package": "libisns0",
    "arch": "amd64",
    "version": "0.97-3"
  },
  {
    "package": "libjcat1",
    "arch": "amd64",
    "version": "0.1.4-0ubuntu0.20.04.1"
  },
  {
    "package": "libjson-c4",
    "arch": "amd64",
    "version": "0.13.1+dfsg-7ubuntu0.3"
  },
  {
    "package": "libjson-glib-1.0-0",
    "arch": "amd64",
    "version": "1.4.4-2ubuntu2"
  },
  {
    "package": "libjson-glib-1.0-common",
    "arch": "",
    "version": "1.4.4-2ubuntu2"
  },
  {
    "package": "libk5crypto3",
    "arch": "amd64",
    "version": "1.17-6ubuntu4.2"
  },
  {
    "package": "libkeyutils1",
    "arch": "amd64",
    "version": "1.6-6ubuntu1.1"
  },
  {
    "package": "libklibc",
    "arch": "amd64",
    "version": "2.0.7-1ubuntu5.1"
  },
  {
    "package": "libkmod2",
    "arch": "amd64",
    "version": "27-1ubuntu2.1"
  },
  {
    "package": "libkrb5-26-heimdal",
    "arch": "amd64",
    "version": "7.7.0+dfsg-1ubuntu1.4"
  },
  {
    "package": "libkrb5-3",
    "arch": "amd64",
    "version": "1.17-6ubuntu4.2"
  },
  {
    "package": "libkrb5support0",
    "arch": "amd64",
    "version": "1.17-6ubuntu4.2"
  },
  {
    "package": "libksba8",
    "arch": "amd64",
    "version": "1.3.5-2ubuntu0.20.04.2"
  },
  {
    "package": "libldap-2.4-2",
    "arch": "amd64",
    "version": "2.4.49+dfsg-2ubuntu1.9"
  },
  {
    "package": "libldap-common",
    "arch": "",
    "version": "2.4.49+dfsg-2ubuntu1.9"
  },
  {
    "package": "liblmdb0",
    "arch": "amd64",
    "version": "0.9.24-1"
  },
  {
    "package": "liblocale-gettext-perl",
    "arch": "amd64",
    "version": "1.07-4"
  },
  {
    "package": "libltdl7",
    "arch": "amd64",
    "version": "2.4.6-14"
  },
  {
    "package": "liblvm2cmd2.03",
    "arch": "amd64",
    "version": "2.03.07-1ubuntu1"
  },
  {
    "package": "liblz4-1",
    "arch": "amd64",
    "version": "1.9.2-2ubuntu0.20.04.1"
  },
  {
    "package": "liblzma5",
    "arch": "amd64",
    "version": "5.2.4-1ubuntu1.1"
  },
  {
    "package": "liblzo2-2",
    "arch": "amd64",
    "version": "2.10-2"
  },
  {
    "package": "libmagic-mgc",
    "arch": "amd64",
    "version": "1:5.38-4"
  },
  {
    "package": "libmagic1",
    "arch": "amd64",
    "version": "1:5.38-4"
  },
  {
    "package": "libmaxminddb0",
    "arch": "amd64",
    "version": "1.4.2-0ubuntu1.20.04.1"
  },
  {
    "package": "libmbim-glib4",
    "arch": "amd64",
    "version": "1.26.2-1~ubuntu20.04.1"
  },
  {
    "package": "libmbim-proxy",
    "arch": "amd64",
    "version": "1.26.2-1~ubuntu20.04.1"
  },
  {
    "package": "libmm-glib0",
    "arch": "amd64",
    "version": "1.18.6-1~ubuntu20.04.1"
  },
  {
    "package": "libmnl0",
    "arch": "amd64",
    "version": "1.0.4-2"
  },
  {
    "package": "libmount1",
    "arch": "amd64",
    "version": "2.34-0.1ubuntu9.3"
  },
  {
    "package": "libmpdec2",
    "arch": "amd64",
    "version": "2.4.2-3"
  },
  {
    "package": "libmpfr6",
    "arch": "amd64",
    "version": "4.0.2-1"
  },
  {
    "package": "libmspack0",
    "arch": "amd64",
    "version": "0.10.1-2"
  },
  {
    "package": "libncurses6",
    "arch": "amd64",
    "version": "6.2-0ubuntu2"
  },
  {
    "package": "libncursesw6",
    "arch": "amd64",
    "version": "6.2-0ubuntu2"
  },
  {
    "package": "libnetfilter-conntrack3",
    "arch": "amd64",
    "version": "1.0.7-2"
  },
  {
    "package": "libnetplan0",
    "arch": "amd64",
    "version": "0.104-0ubuntu2~20.04.2"
  },
  {
    "package": "libnettle7",
    "arch": "amd64",
    "version": "3.5.1+really3.5.1-2ubuntu0.2"
  },
  {
    "package": "libnewt0.52",
    "arch": "amd64",
    "version": "0.52.21-4ubuntu2"
  },
  {
    "package": "libnfnetlink0",
    "arch": "amd64",
    "version": "1.0.1-3build1"
  },
  {
    "package": "libnftnl11",
    "arch": "amd64",
    "version": "1.1.5-1"
  },
  {
    "package": "libnghttp2-14",
    "arch": "amd64",
    "version": "1.40.0-1build1"
  },
  {
    "package": "libnpth0",
    "arch": "amd64",
    "version": "1.6-1"
  },
  {
    "package": "libnspr4",
    "arch": "amd64",
    "version": "2:4.25-1"
  },
  {
    "package": "libnss-systemd",
    "arch": "amd64",
    "version": "245.4-4ubuntu3.19"
  },
  {
    "package": "libnss3",
    "arch": "amd64",
    "version": "2:3.49.1-1ubuntu1.9"
  },
  {
    "package": "libntfs-3g883",
    "arch": "amd64",
    "version": "1:2017.3.23AR.3-3ubuntu1.3"
  },
  {
    "package": "libnuma1",
    "arch": "amd64",
    "version": "2.0.12-1"
  },
  {
    "package": "libogg0",
    "arch": "amd64",
    "version": "1.3.4-0ubuntu1"
  },
  {
    "package": "libopenscap8",
    "arch": "amd64",
    "version": "1.2.16-2ubuntu3.3"
  },
  {
    "package": "libp11-kit0",
    "arch": "amd64",
    "version": "0.23.20-1ubuntu0.1"
  },
  {
    "package": "libpackagekit-glib2-18",
    "arch": "amd64",
    "version": "1.1.13-2ubuntu1.1"
  },
  {
    "package": "libpam-cap",
    "arch": "amd64",
    "version": "1:2.32-1"
  },
  {
    "package": "libpam-modules-bin",
    "arch": "amd64",
    "version": "1.3.1-5ubuntu4.6"
  },
  {
    "package": "libpam-modules",
    "arch": "amd64",
    "version": "1.3.1-5ubuntu4.6"
  },
  {
    "package": "libpam-runtime",
    "arch": "",
    "version": "1.3.1-5ubuntu4.6"
  },
  {
    "package": "libpam-systemd",
    "arch": "amd64",
    "version": "245.4-4ubuntu3.19"
  },
  {
    "package": "libpam0g",
    "arch": "amd64",
    "version": "1.3.1-5ubuntu4.6"
  },
  {
    "package": "libparted-fs-resize0",
    "arch": "amd64",
    "version": "3.3-4ubuntu0.20.04.1"
  },
  {
    "package": "libparted2",
    "arch": "amd64",
    "version": "3.3-4ubuntu0.20.04.1"
  },
  {
    "package": "libpcap0.8",
    "arch": "amd64",
    "version": "1.9.1-3"
  },
  {
    "package": "libpci3",
    "arch": "amd64",
    "version": "1:3.6.4-1ubuntu0.20.04.1"
  },
  {
    "package": "libpcre2-8-0",
    "arch": "amd64",
    "version": "10.34-7ubuntu0.1"
  },
  {
    "package": "libpcre3",
    "arch": "amd64",
    "version": "2:8.39-12ubuntu0.1"
  },
  {
    "package": "libperl5.30",
    "arch": "amd64",
    "version": "5.30.0-9ubuntu0.3"
  },
  {
    "package": "libpipeline1",
    "arch": "amd64",
    "version": "1.5.2-2build1"
  },
  {
    "package": "libplymouth5",
    "arch": "amd64",
    "version": "0.9.4git20200323-0ubuntu6.2"
  },
  {
    "package": "libpng16-16",
    "arch": "amd64",
    "version": "1.6.37-2"
  },
  {
    "package": "libpolkit-agent-1-0",
    "arch": "amd64",
    "version": "0.105-26ubuntu1.3"
  },
  {
    "package": "libpolkit-gobject-1-0",
    "arch": "amd64",
    "version": "0.105-26ubuntu1.3"
  },
  {
    "package": "libpopt0",
    "arch": "amd64",
    "version": "1.16-14"
  },
  {
    "package": "libprocps8",
    "arch": "amd64",
    "version": "2:3.3.16-1ubuntu2.3"
  },
  {
    "package": "libproxy1v5",
    "arch": "amd64",
    "version": "0.4.15-10ubuntu1.2"
  },
  {
    "package": "libpsl5",
    "arch": "amd64",
    "version": "0.21.0-1ubuntu1"
  },
  {
    "package": "libpython3-stdlib",
    "arch": "amd64",
    "version": "3.8.2-0ubuntu2"
  },
  {
    "package": "libpython3.8-minimal",
    "arch": "amd64",
    "version": "3.8.10-0ubuntu1~20.04.6"
  },
  {
    "package": "libpython3.8-stdlib",
    "arch": "amd64",
    "version": "3.8.10-0ubuntu1~20.04.6"
  },
  {
    "package": "libpython3.8",
    "arch": "amd64",
    "version": "3.8.10-0ubuntu1~20.04.6"
  },
  {
    "package": "libqmi-glib5",
    "arch": "amd64",
    "version": "1.30.4-1~ubuntu20.04.1"
  },
  {
    "package": "libqmi-proxy",
    "arch": "amd64",
    "version": "1.30.4-1~ubuntu20.04.1"
  },
  {
    "package": "libreadline5",
    "arch": "amd64",
    "version": "5.2+dfsg-3build3"
  },
  {
    "package": "libreadline8",
    "arch": "amd64",
    "version": "8.0-4"
  },
  {
    "package": "libroken18-heimdal",
    "arch": "amd64",
    "version": "7.7.0+dfsg-1ubuntu1.4"
  },
  {
    "package": "librtmp1",
    "arch": "amd64",
    "version": "2.4+20151223.gitfa8646d.1-2build1"
  },
  {
    "package": "libsasl2-2",
    "arch": "amd64",
    "version": "2.1.27+dfsg-2ubuntu0.1"
  },
  {
    "package": "libsasl2-modules-db",
    "arch": "amd64",
    "version": "2.1.27+dfsg-2ubuntu0.1"
  },
  {
    "package": "libsasl2-modules",
    "arch": "amd64",
    "version": "2.1.27+dfsg-2ubuntu0.1"
  },
  {
    "package": "libseccomp2",
    "arch": "amd64",
    "version": "2.5.1-1ubuntu1~20.04.2"
  },
  {
    "package": "libselinux1",
    "arch": "amd64",
    "version": "3.0-1build2"
  },
  {
    "package": "libsemanage-common",
    "arch": "",
    "version": "3.0-1build2"
  },
  {
    "package": "libsemanage1",
    "arch": "amd64",
    "version": "3.0-1build2"
  },
  {
    "package": "libsepol1",
    "arch": "amd64",
    "version": "3.0-1ubuntu0.1"
  },
  {
    "package": "libsgutils2-2",
    "arch": "amd64",
    "version": "1.44-1ubuntu2"
  },
  {
    "package": "libsigsegv2",
    "arch": "amd64",
    "version": "2.12-2"
  },
  {
    "package": "libslang2",
    "arch": "amd64",
    "version": "2.3.2-4"
  },
  {
    "package": "libsmartcols1",
    "arch": "amd64",
    "version": "2.34-0.1ubuntu9.3"
  },
  {
    "package": "libsmbios-c2",
    "arch": "amd64",
    "version": "2.4.3-1"
  },
  {
    "package": "libsodium23",
    "arch": "amd64",
    "version": "1.0.18-1"
  },
  {
    "package": "libsoup2.4-1",
    "arch": "amd64",
    "version": "2.70.0-1"
  },
  {
    "package": "libsqlite3-0",
    "arch": "amd64",
    "version": "3.31.1-4ubuntu0.5"
  },
  {
    "package": "libss2",
    "arch": "amd64",
    "version": "1.45.5-2ubuntu1.1"
  },
  {
    "package": "libssh-4",
    "arch": "amd64",
    "version": "0.9.3-2ubuntu2.2"
  },
  {
    "package": "libssl1.1",
    "arch": "amd64",
    "version": "1.1.1f-1ubuntu2.17"
  },
  {
    "package": "libstdc++6",
    "arch": "amd64",
    "version": "10.3.0-1ubuntu1~20.04"
  },
  {
    "package": "libstemmer0d",
    "arch": "amd64",
    "version": "0+svn585-2"
  },
  {
    "package": "libsystemd0",
    "arch": "amd64",
    "version": "245.4-4ubuntu3.19"
  },
  {
    "package": "libtalloc2",
    "arch": "amd64",
    "version": "2.3.1-0ubuntu0.20.04.1"
  },
  {
    "package": "libtasn1-6",
    "arch": "amd64",
    "version": "4.16.0-2"
  },
  {
    "package": "libtdb1",
    "arch": "amd64",
    "version": "1.4.3-0ubuntu0.20.04.1"
  },
  {
    "package": "libtevent0",
    "arch": "amd64",
    "version": "0.10.2-0ubuntu0.20.04.1"
  },
  {
    "package": "libtext-charwidth-perl",
    "arch": "amd64",
    "version": "0.04-10"
  },
  {
    "package": "libtext-iconv-perl",
    "arch": "amd64",
    "version": "1.7-7"
  },
  {
    "package": "libtext-wrapi18n-perl",
    "arch": "",
    "version": "0.06-9"
  },
  {
    "package": "libtinfo6",
    "arch": "amd64",
    "version": "6.2-0ubuntu2"
  },
  {
    "package": "libtss2-esys0",
    "arch": "amd64",
    "version": "2.3.2-1ubuntu0.20.04.1"
  },
  {
    "package": "libuchardet0",
    "arch": "amd64",
    "version": "0.0.6-3build1"
  },
  {
    "package": "libudev1",
    "arch": "amd64",
    "version": "245.4-4ubuntu3.19"
  },
  {
    "package": "libudisks2-0",
    "arch": "amd64",
    "version": "2.8.4-1ubuntu2"
  },
  {
    "package": "libunistring2",
    "arch": "amd64",
    "version": "0.9.10-2"
  },
  {
    "package": "libunwind8",
    "arch": "amd64",
    "version": "1.2.1-9build1"
  },
  {
    "package": "liburcu6",
    "arch": "amd64",
    "version": "0.11.1-2"
  },
  {
    "package": "libusb-1.0-0",
    "arch": "amd64",
    "version": "2:1.0.23-2build1"
  },
  {
    "package": "libutempter0",
    "arch": "amd64",
    "version": "1.1.6-4"
  },
  {
    "package": "libuuid1",
    "arch": "amd64",
    "version": "2.34-0.1ubuntu9.3"
  },
  {
    "package": "libuv1",
    "arch": "amd64",
    "version": "1.34.2-1ubuntu1.3"
  },
  {
    "package": "libvolume-key1",
    "arch": "amd64",
    "version": "0.3.12-3.1"
  },
  {
    "package": "libvorbis0a",
    "arch": "amd64",
    "version": "1.3.6-2ubuntu1"
  },
  {
    "package": "libvorbisfile3",
    "arch": "amd64",
    "version": "1.3.6-2ubuntu1"
  },
  {
    "package": "libwbclient0",
    "arch": "amd64",
    "version": "2:4.13.17~dfsg-0ubuntu1.20.04.5"
  },
  {
    "package": "libwind0-heimdal",
    "arch": "amd64",
    "version": "7.7.0+dfsg-1ubuntu1.4"
  },
  {
    "package": "libwrap0",
    "arch": "amd64",
    "version": "7.6.q-30"
  },
  {
    "package": "libx11-6",
    "arch": "amd64",
    "version": "2:1.6.9-2ubuntu1.2"
  },
  {
    "package": "libx11-data",
    "arch": "",
    "version": "2:1.6.9-2ubuntu1.2"
  },
  {
    "package": "libxau6",
    "arch": "amd64",
    "version": "1:1.0.9-0ubuntu1"
  },
  {
    "package": "libxcb1",
    "arch": "amd64",
    "version": "1.14-2"
  },
  {
    "package": "libxdmcp6",
    "arch": "amd64",
    "version": "1:1.1.3-0ubuntu1"
  },
  {
    "package": "libxext6",
    "arch": "amd64",
    "version": "2:1.3.4-0ubuntu1"
  },
  {
    "package": "libxml2",
    "arch": "amd64",
    "version": "2.9.10+dfsg-5ubuntu0.20.04.5"
  },
  {
    "package": "libxmlb1",
    "arch": "amd64",
    "version": "0.1.15-2ubuntu1~20.04.1"
  },
  {
    "package": "libxmlb2",
    "arch": "amd64",
    "version": "0.3.6-2build1~20.04.1"
  },
  {
    "package": "libxmlsec1-openssl",
    "arch": "amd64",
    "version": "1.2.28-2"
  },
  {
    "package": "libxmlsec1",
    "arch": "amd64",
    "version": "1.2.28-2"
  },
  {
    "package": "libxmuu1",
    "arch": "amd64",
    "version": "2:1.1.3-0ubuntu1"
  },
  {
    "package": "libxslt1.1",
    "arch": "amd64",
    "version": "1.1.34-4ubuntu0.20.04.1"
  },
  {
    "package": "libxtables12",
    "arch": "amd64",
    "version": "1.8.4-3ubuntu2"
  },
  {
    "package": "libyaml-0-2",
    "arch": "amd64",
    "version": "0.2.2-1"
  },
  {
    "package": "libzstd1",
    "arch": "amd64",
    "version": "1.4.4+dfsg-3ubuntu0.1"
  },
  {
    "package": "linux-azure-5.15-cloud-tools-5.15.0-1034",
    "arch": "amd64",
    "version": "5.15.0-1034.41~20.04.1"
  },
  {
    "package": "linux-azure-5.15-headers-5.15.0-1034",
    "arch": "",
    "version": "5.15.0-1034.41~20.04.1"
  },
  {
    "package": "linux-azure-5.15-tools-5.15.0-1034",
    "arch": "amd64",
    "version": "5.15.0-1034.41~20.04.1"
  },
  {
    "package": "linux-azure",
    "arch": "amd64",
    "version": "5.15.0.1034.41~20.04.24"
  },
  {
    "package": "linux-base-sgx",
    "arch": "",
    "version": "4.5ubuntu3.7"
  },
  {
    "package": "linux-base",
    "arch": "",
    "version": "4.5ubuntu3.7"
  },
  {
    "package": "linux-cloud-tools-5.15.0-1034-azure",
    "arch": "amd64",
    "version": "5.15.0-1034.41~20.04.1"
  },
  {
    "package": "linux-cloud-tools-azure",
    "arch": "amd64",
    "version": "5.15.0.1034.41~20.04.24"
  },
  {
    "package": "linux-cloud-tools-common",
    "arch": "",
    "version": "5.4.0-144.161"
  },
  {
    "package": "linux-headers-5.15.0-1034-azure",
    "arch": "amd64",
    "version": "5.15.0-1034.41~20.04.1"
  },
  {
    "package": "linux-headers-azure",
    "arch": "amd64",
    "version": "5.15.0.1034.41~20.04.24"
  },
  {
    "package": "linux-image-5.15.0-1034-azure",
    "arch": "amd64",
    "version": "5.15.0-1034.41~20.04.1"
  },
  {
    "package": "linux-image-azure",
    "arch": "amd64",
    "version": "5.15.0.1034.41~20.04.24"
  },
  {
    "package": "linux-modules-5.15.0-1034-azure",
    "arch": "amd64",
    "version": "5.15.0-1034.41~20.04.1"
  },
  {
    "package": "linux-tools-5.15.0-1034-azure",
    "arch": "amd64",
    "version": "5.15.0-1034.41~20.04.1"
  },
  {
    "package": "linux-tools-azure",
    "arch": "amd64",
    "version": "5.15.0.1034.41~20.04.24"
  },
  {
    "package": "linux-tools-common",
    "arch": "",
    "version": "5.4.0-144.161"
  },
  {
    "package": "locales",
    "arch": "",
    "version": "2.31-0ubuntu9.9"
  },
  {
    "package": "login",
    "arch": "amd64",
    "version": "1:4.8.1-1ubuntu5.20.04.4"
  },
  {
    "package": "logrotate",
    "arch": "amd64",
    "version": "3.14.0-4ubuntu3"
  },
  {
    "package": "logsave",
    "arch": "amd64",
    "version": "1.45.5-2ubuntu1.1"
  },
  {
    "package": "lsb-base",
    "arch": "",
    "version": "11.1.0ubuntu2"
  },
  {
    "package": "lsb-release",
    "arch": "",
    "version": "11.1.0ubuntu2"
  },
  {
    "package": "lshw",
    "arch": "amd64",
    "version": "02.18.85-0.3ubuntu2.20.04.1"
  },
  {
    "package": "lsof",
    "arch": "amd64",
    "version": "4.93.2+dfsg-1ubuntu0.20.04.1"
  },
  {
    "package": "lsscsi",
    "arch": "amd64",
    "version": "0.30-0.1"
  },
  {
    "package": "ltrace",
    "arch": "amd64",
    "version": "0.7.3-6.1ubuntu1"
  },
  {
    "package": "lvm2",
    "arch": "amd64",
    "version": "2.03.07-1ubuntu1"
  },
  {
    "package": "lxd-agent-loader",
    "arch": "",
    "version": "0.4"
  },
  {
    "package": "lz4",
    "arch": "amd64",
    "version": "1.9.2-2ubuntu0.20.04.1"
  },
  {
    "package": "man-db",
    "arch": "amd64",
    "version": "2.9.1-1"
  },
  {
    "package": "manpages",
    "arch": "",
    "version": "5.05-1"
  },
  {
    "package": "mawk",
    "arch": "amd64",
    "version": "1.3.4.20200120-2"
  },
  {
    "package": "mdadm",
    "arch": "amd64",
    "version": "4.1-5ubuntu1.2"
  },
  {
    "package": "mime-support",
    "arch": "",
    "version": "3.64ubuntu1"
  },
  {
    "package": "modemmanager",
    "arch": "amd64",
    "version": "1.18.6-1~ubuntu20.04.1"
  },
  {
    "package": "mokutil",
    "arch": "amd64",
    "version": "0.3.0+1538710437.fb6250f-1"
  },
  {
    "package": "motd-news-config",
    "arch": "",
    "version": "11ubuntu5.6"
  },
  {
    "package": "mount",
    "arch": "amd64",
    "version": "2.34-0.1ubuntu9.3"
  },
  {
    "package": "mtr-tiny",
    "arch": "amd64",
    "version": "0.93-1"
  },
  {
    "package": "multipath-tools",
    "arch": "amd64",
    "version": "0.8.3-1ubuntu2.1"
  },
  {
    "package": "nano",
    "arch": "amd64",
    "version": "4.8-1ubuntu1"
  },
  {
    "package": "ncurses-base",
    "arch": "",
    "version": "6.2-0ubuntu2"
  },
  {
    "package": "ncurses-bin",
    "arch": "amd64",
    "version": "6.2-0ubuntu2"
  },
  {
    "package": "ncurses-term",
    "arch": "",
    "version": "6.2-0ubuntu2"
  },
  {
    "package": "netbase",
    "arch": "",
    "version": "6.1"
  },
  {
    "package": "netcat-openbsd",
    "arch": "amd64",
    "version": "1.206-1ubuntu1"
  },
  {
    "package": "netplan.io",
    "arch": "amd64",
    "version": "0.104-0ubuntu2~20.04.2"
  },
  {
    "package": "networkd-dispatcher",
    "arch": "",
    "version": "2.1-2~ubuntu20.04.3"
  },
  {
    "package": "ntfs-3g",
    "arch": "amd64",
    "version": "1:2017.3.23AR.3-3ubuntu1.3"
  },
  {
    "package": "open-iscsi",
    "arch": "amd64",
    "version": "2.0.874-7.1ubuntu6.2"
  },
  {
    "package": "open-vm-tools",
    "arch": "amd64",
    "version": "2:11.3.0-2ubuntu0~ubuntu20.04.4"
  },
  {
    "package": "openssh-client",
    "arch": "amd64",
    "version": "1:8.2p1-4ubuntu0.5"
  },
  {
    "package": "openssh-server",
    "arch": "amd64",
    "version": "1:8.2p1-4ubuntu0.5"
  },
  {
    "package": "openssh-sftp-server",
    "arch": "amd64",
    "version": "1:8.2p1-4ubuntu0.5"
  },
  {
    "package": "openssl",
    "arch": "amd64",
    "version": "1.1.1f-1ubuntu2.17"
  },
  {
    "package": "os-prober",
    "arch": "amd64",
    "version": "1.74ubuntu2"
  },
  {
    "package": "overlayroot",
    "arch": "",
    "version": "0.45ubuntu2"
  },
  {
    "package": "packagekit-tools",
    "arch": "amd64",
    "version": "1.1.13-2ubuntu1.1"
  },
  {
    "package": "packagekit",
    "arch": "amd64",
    "version": "1.1.13-2ubuntu1.1"
  },
  {
    "package": "parted",
    "arch": "amd64",
    "version": "3.3-4ubuntu0.20.04.1"
  },
  {
    "package": "passwd",
    "arch": "amd64",
    "version": "1:4.8.1-1ubuntu5.20.04.4"
  },
  {
    "package": "pastebinit",
    "arch": "",
    "version": "1.5.1-1"
  },
  {
    "package": "patch",
    "arch": "amd64",
    "version": "2.7.6-6"
  },
  {
    "package": "pci.ids",
    "arch": "",
    "version": "0.0~2020.03.20-1"
  },
  {
    "package": "pciutils",
    "arch": "amd64",
    "version": "1:3.6.4-1ubuntu0.20.04.1"
  },
  {
    "package": "perl-base",
    "arch": "amd64",
    "version": "5.30.0-9ubuntu0.3"
  },
  {
    "package": "perl-modules-5.30",
    "arch": "",
    "version": "5.30.0-9ubuntu0.3"
  },
  {
    "package": "perl",
    "arch": "amd64",
    "version": "5.30.0-9ubuntu0.3"
  },
  {
    "package": "pinentry-curses",
    "arch": "amd64",
    "version": "1.1.0-3build1"
  },
  {
    "package": "plymouth-theme-ubuntu-text",
    "arch": "amd64",
    "version": "0.9.4git20200323-0ubuntu6.2"
  },
  {
    "package": "plymouth",
    "arch": "amd64",
    "version": "0.9.4git20200323-0ubuntu6.2"
  },
  {
    "package": "policykit-1",
    "arch": "amd64",
    "version": "0.105-26ubuntu1.3"
  },
  {
    "package": "pollinate",
    "arch": "",
    "version": "4.33-3ubuntu1.20.04.1"
  },
  {
    "package": "popularity-contest",
    "arch": "",
    "version": "1.69ubuntu1"
  },
  {
    "package": "powermgmt-base",
    "arch": "",
    "version": "1.36"
  },
  {
    "package": "procps",
    "arch": "amd64",
    "version": "2:3.3.16-1ubuntu2.3"
  },
  {
    "package": "psmisc",
    "arch": "amd64",
    "version": "23.3-1"
  },
  {
    "package": "publicsuffix",
    "arch": "",
    "version": "20200303.0012-1"
  },
  {
    "package": "python-apt-common",
    "arch": "",
    "version": "2.0.1"
  },
  {
    "package": "python3-apport",
    "arch": "",
    "version": "2.20.11-0ubuntu27.25"
  },
  {
    "package": "python3-apt",
    "arch": "amd64",
    "version": "2.0.1"
  },
  {
    "package": "python3-attr",
    "arch": "",
    "version": "19.3.0-2"
  },
  {
    "package": "python3-automat",
    "arch": "",
    "version": "0.8.0-1ubuntu1"
  },
  {
    "package": "python3-blinker",
    "arch": "",
    "version": "1.4+dfsg1-0.3ubuntu1"
  },
  {
    "package": "python3-certifi",
    "arch": "",
    "version": "2019.11.28-1"
  },
  {
    "package": "python3-cffi-backend",
    "arch": "amd64",
    "version": "1.14.0-1build1"
  },
  {
    "package": "python3-chardet",
    "arch": "",
    "version": "3.0.4-4build1"
  },
  {
    "package": "python3-click",
    "arch": "",
    "version": "7.0-3"
  },
  {
    "package": "python3-colorama",
    "arch": "",
    "version": "0.4.3-1build1"
  },
  {
    "package": "python3-commandnotfound",
    "arch": "",
    "version": "20.04.6"
  },
  {
    "package": "python3-configobj",
    "arch": "",
    "version": "5.0.6-4"
  },
  {
    "package": "python3-constantly",
    "arch": "",
    "version": "15.1.0-1build1"
  },
  {
    "package": "python3-cryptography",
    "arch": "amd64",
    "version": "2.8-3ubuntu0.1"
  },
  {
    "package": "python3-dbus",
    "arch": "amd64",
    "version": "1.2.16-1build1"
  },
  {
    "package": "python3-debconf",
    "arch": "",
    "version": "1.5.73"
  },
  {
    "package": "python3-debian",
    "arch": "",
    "version": "0.1.36ubuntu1"
  },
  {
    "package": "python3-distro-info",
    "arch": "",
    "version": "0.23ubuntu1"
  },
  {
    "package": "python3-distro",
    "arch": "",
    "version": "1.4.0-1"
  },
  {
    "package": "python3-distupgrade",
    "arch": "",
    "version": "1:20.04.40"
  },
  {
    "package": "python3-distutils",
    "arch": "",
    "version": "3.8.10-0ubuntu1~20.04"
  },
  {
    "package": "python3-entrypoints",
    "arch": "",
    "version": "0.3-2ubuntu1"
  },
  {
    "package": "python3-gdbm",
    "arch": "amd64",
    "version": "3.8.10-0ubuntu1~20.04"
  },
  {
    "package": "python3-gi",
    "arch": "amd64",
    "version": "3.36.0-1"
  },
  {
    "package": "python3-hamcrest",
    "arch": "",
    "version": "1.9.0-3"
  },
  {
    "package": "python3-httplib2",
    "arch": "",
    "version": "0.14.0-1ubuntu1"
  },
  {
    "package": "python3-hyperlink",
    "arch": "",
    "version": "19.0.0-1"
  },
  {
    "package": "python3-idna",
    "arch": "",
    "version": "2.8-1"
  },
  {
    "package": "python3-importlib-metadata",
    "arch": "",
    "version": "1.5.0-1"
  },
  {
    "package": "python3-incremental",
    "arch": "",
    "version": "16.10.1-3.2"
  },
  {
    "package": "python3-jinja2",
    "arch": "",
    "version": "2.10.1-2"
  },
  {
    "package": "python3-json-pointer",
    "arch": "",
    "version": "2.0-0ubuntu1"
  },
  {
    "package": "python3-jsonpatch",
    "arch": "",
    "version": "1.23-3"
  },
  {
    "package": "python3-jsonschema",
    "arch": "",
    "version": "3.2.0-0ubuntu2"
  },
  {
    "package": "python3-jwt",
    "arch": "",
    "version": "1.7.1-2ubuntu2.1"
  },
  {
    "package": "python3-keyring",
    "arch": "",
    "version": "18.0.1-2ubuntu1"
  },
  {
    "package": "python3-launchpadlib",
    "arch": "",
    "version": "1.10.13-1"
  },
  {
    "package": "python3-lazr.restfulclient",
    "arch": "",
    "version": "0.14.2-2build1"
  },
  {
    "package": "python3-lazr.uri",
    "arch": "",
    "version": "1.0.3-4build1"
  },
  {
    "package": "python3-lib2to3",
    "arch": "",
    "version": "3.8.10-0ubuntu1~20.04"
  },
  {
    "package": "python3-markupsafe",
    "arch": "amd64",
    "version": "1.1.0-1build2"
  },
  {
    "package": "python3-minimal",
    "arch": "amd64",
    "version": "3.8.2-0ubuntu2"
  },
  {
    "package": "python3-more-itertools",
    "arch": "",
    "version": "4.2.0-1build1"
  },
  {
    "package": "python3-nacl",
    "arch": "amd64",
    "version": "1.3.0-5"
  },
  {
    "package": "python3-netifaces",
    "arch": "amd64",
    "version": "0.10.4-1ubuntu4"
  },
  {
    "package": "python3-newt",
    "arch": "amd64",
    "version": "0.52.21-4ubuntu2"
  },
  {
    "package": "python3-oauthlib",
    "arch": "",
    "version": "3.1.0-1ubuntu2"
  },
  {
    "package": "python3-openssl",
    "arch": "",
    "version": "19.0.0-1build1"
  },
  {
    "package": "python3-parted",
    "arch": "amd64",
    "version": "3.11.2-11.1build1"
  },
  {
    "package": "python3-pexpect",
    "arch": "",
    "version": "4.6.0-1build1"
  },
  {
    "package": "python3-pkg-resources",
    "arch": "",
    "version": "45.2.0-1ubuntu0.1"
  },
  {
    "package": "python3-problem-report",
    "arch": "",
    "version": "2.20.11-0ubuntu27.25"
  },
  {
    "package": "python3-ptyprocess",
    "arch": "",
    "version": "0.6.0-1ubuntu1"
  },
  {
    "package": "python3-pyasn1-modules",
    "arch": "",
    "version": "0.2.1-0.2build1"
  },
  {
    "package": "python3-pyasn1",
    "arch": "",
    "version": "0.4.2-3build1"
  },
  {
    "package": "python3-pymacaroons",
    "arch": "",
    "version": "0.13.0-3"
  },
  {
    "package": "python3-pyrsistent",
    "arch": "amd64",
    "version": "0.15.5-1build1"
  },
  {
    "package": "python3-requests-unixsocket",
    "arch": "",
    "version": "0.2.0-2"
  },
  {
    "package": "python3-requests",
    "arch": "",
    "version": "2.22.0-2ubuntu1"
  },
  {
    "package": "python3-secretstorage",
    "arch": "",
    "version": "2.3.1-2ubuntu1"
  },
  {
    "package": "python3-serial",
    "arch": "",
    "version": "3.4-5.1"
  },
  {
    "package": "python3-service-identity",
    "arch": "",
    "version": "18.1.0-5build1"
  },
  {
    "package": "python3-setuptools",
    "arch": "",
    "version": "45.2.0-1ubuntu0.1"
  },
  {
    "package": "python3-simplejson",
    "arch": "amd64",
    "version": "3.16.0-2ubuntu2"
  },
  {
    "package": "python3-six",
    "arch": "",
    "version": "1.14.0-2"
  },
  {
    "package": "python3-software-properties",
    "arch": "",
    "version": "0.99.9.11"
  },
  {
    "package": "python3-systemd",
    "arch": "amd64",
    "version": "234-3build2"
  },
  {
    "package": "python3-twisted-bin",
    "arch": "amd64",
    "version": "18.9.0-11ubuntu0.20.04.2"
  },
  {
    "package": "python3-twisted",
    "arch": "",
    "version": "18.9.0-11ubuntu0.20.04.2"
  },
  {
    "package": "python3-update-manager",
    "arch": "",
    "version": "1:20.04.10.11"
  },
  {
    "package": "python3-urllib3",
    "arch": "",
    "version": "1.25.8-2ubuntu0.2"
  },
  {
    "package": "python3-wadllib",
    "arch": "",
    "version": "1.3.3-3build1"
  },
  {
    "package": "python3-yaml",
    "arch": "amd64",
    "version": "5.3.1-1ubuntu0.1"
  },
  {
    "package": "python3-zipp",
    "arch": "",
    "version": "1.0.0-1"
  },
  {
    "package": "python3-zope.interface",
    "arch": "amd64",
    "version": "4.7.1-1"
  },
  {
    "package": "python3.8-minimal",
    "arch": "amd64",
    "version": "3.8.10-0ubuntu1~20.04.6"
  },
  {
    "package": "python3.8",
    "arch": "amd64",
    "version": "3.8.10-0ubuntu1~20.04.6"
  },
  {
    "package": "python3",
    "arch": "amd64",
    "version": "3.8.2-0ubuntu2"
  },
  {
    "package": "readline-common",
    "arch": "",
    "version": "8.0-4"
  },
  {
    "package": "rsync",
    "arch": "amd64",
    "version": "3.1.3-8ubuntu0.4"
  },
  {
    "package": "rsyslog",
    "arch": "amd64",
    "version": "8.2001.0-1ubuntu1.3"
  },
  {
    "package": "run-one",
    "arch": "",
    "version": "1.17-0ubuntu1"
  },
  {
    "package": "sbsigntool",
    "arch": "amd64",
    "version": "0.9.2-2ubuntu1.1"
  },
  {
    "package": "screen",
    "arch": "amd64",
    "version": "4.8.0-1ubuntu0.1"
  },
  {
    "package": "secureboot-db",
    "arch": "amd64",
    "version": "1.5"
  },
  {
    "package": "sed",
    "arch": "amd64",
    "version": "4.7-1"
  },
  {
    "package": "sensible-utils",
    "arch": "",
    "version": "0.0.12+nmu1"
  },
  {
    "package": "sg3-utils-udev",
    "arch": "",
    "version": "1.44-1ubuntu2"
  },
  {
    "package": "sg3-utils",
    "arch": "amd64",
    "version": "1.44-1ubuntu2"
  },
  {
    "package": "shared-mime-info",
    "arch": "amd64",
    "version": "1.15-1"
  },
  {
    "package": "shim-signed",
    "arch": "amd64",
    "version": "1.40.7+15.4-0ubuntu9"
  },
  {
    "package": "snapd",
    "arch": "amd64",
    "version": "2.58+20.04"
  },
  {
    "package": "software-properties-common",
    "arch": "",
    "version": "0.99.9.11"
  },
  {
    "package": "sosreport",
    "arch": "amd64",
    "version": "4.4-1ubuntu0.20.04.1"
  },
  {
    "package": "sound-theme-freedesktop",
    "arch": "",
    "version": "0.8-2ubuntu1"
  },
  {
    "package": "squashfs-tools",
    "arch": "amd64",
    "version": "1:4.4-1ubuntu0.3"
  },
  {
    "package": "ssh-import-id",
    "arch": "",
    "version": "5.10-0ubuntu1"
  },
  {
    "package": "strace",
    "arch": "amd64",
    "version": "5.5-3ubuntu1"
  },
  {
    "package": "sudo",
    "arch": "amd64",
    "version": "1.8.31-1ubuntu1.4"
  },
  {
    "package": "systemd-sysv",
    "arch": "amd64",
    "version": "245.4-4ubuntu3.19"
  },
  {
    "package": "systemd",
    "arch": "amd64",
    "version": "245.4-4ubuntu3.19"
  },
  {
    "package": "sysvinit-utils",
    "arch": "amd64",
    "version": "2.96-2.1ubuntu1"
  },
  {
    "package": "tar",
    "arch": "amd64",
    "version": "1.30+dfsg-7ubuntu0.20.04.3"
  },
  {
    "package": "tcpdump",
    "arch": "amd64",
    "version": "4.9.3-4ubuntu0.1"
  },
  {
    "package": "telnet",
    "arch": "amd64",
    "version": "0.17-41.2build1"
  },
  {
    "package": "thin-provisioning-tools",
    "arch": "amd64",
    "version": "0.8.5-4build1"
  },
  {
    "package": "time",
    "arch": "amd64",
    "version": "1.7-25.1build1"
  },
  {
    "package": "tmux",
    "arch": "amd64",
    "version": "3.0a-2ubuntu0.4"
  },
  {
    "package": "tpm-udev",
    "arch": "",
    "version": "0.4"
  },
  {
    "package": "tzdata",
    "arch": "",
    "version": "2022g-0ubuntu0.20.04.1"
  },
  {
    "package": "ubuntu-advantage-tools",
    "arch": "amd64",
    "version": "27.14.4~20.04"
  },
  {
    "package": "ubuntu-keyring",
    "arch": "",
    "version": "2020.02.11.4"
  },
  {
    "package": "ubuntu-minimal",
    "arch": "amd64",
    "version": "1.450.2"
  },
  {
    "package": "ubuntu-release-upgrader-core",
    "arch": "",
    "version": "1:20.04.40"
  },
  {
    "package": "ubuntu-server",
    "arch": "amd64",
    "version": "1.450.2"
  },
  {
    "package": "ubuntu-standard",
    "arch": "amd64",
    "version": "1.450.2"
  },
  {
    "package": "ucf",
    "arch": "",
    "version": "3.0038+nmu1"
  },
  {
    "package": "udev",
    "arch": "amd64",
    "version": "245.4-4ubuntu3.19"
  },
  {
    "package": "udisks2",
    "arch": "amd64",
    "version": "2.8.4-1ubuntu2"
  },
  {
    "package": "ufw",
    "arch": "",
    "version": "0.36-6ubuntu1"
  },
  {
    "package": "unattended-upgrades",
    "arch": "",
    "version": "2.3ubuntu0.3"
  },
  {
    "package": "update-manager-core",
    "arch": "",
    "version": "1:20.04.10.11"
  },
  {
    "package": "update-notifier-common",
    "arch": "",
    "version": "3.192.30.16"
  },
  {
    "package": "usb-modeswitch-data",
    "arch": "",
    "version": "20191128-3"
  },
  {
    "package": "usb-modeswitch",
    "arch": "amd64",
    "version": "2.5.2+repack0-2ubuntu3"
  },
  {
    "package": "usb.ids",
    "arch": "",
    "version": "2020.03.19-1"
  },
  {
    "package": "usbutils",
    "arch": "amd64",
    "version": "1:012-2"
  },
  {
    "package": "util-linux",
    "arch": "amd64",
    "version": "2.34-0.1ubuntu9.3"
  },
  {
    "package": "uuid-runtime",
    "arch": "amd64",
    "version": "2.34-0.1ubuntu9.3"
  },
  {
    "package": "vim-common",
    "arch": "",
    "version": "2:8.1.2269-1ubuntu5.11"
  },
  {
    "package": "vim-runtime",
    "arch": "",
    "version": "2:8.1.2269-1ubuntu5.11"
  },
  {
    "package": "vim-tiny",
    "arch": "amd64",
    "version": "2:8.1.2269-1ubuntu5.11"
  },
  {
    "package": "vim",
    "arch": "amd64",
    "version": "2:8.1.2269-1ubuntu5.11"
  },
  {
    "package": "walinuxagent",
    "arch": "amd64",
    "version": "2.2.46-0ubuntu1.2"
  },
  {
    "package": "wget",
    "arch": "amd64",
    "version": "1.20.3-1ubuntu2"
  },
  {
    "package": "whiptail",
    "arch": "amd64",
    "version": "0.52.21-4ubuntu2"
  },
  {
    "package": "xauth",
    "arch": "amd64",
    "version": "1:1.1-0ubuntu1"
  },
  {
    "package": "xdg-user-dirs",
    "arch": "amd64",
    "version": "0.17-2ubuntu1"
  },
  {
    "package": "xfsprogs",
    "arch": "amd64",
    "version": "5.3.0-1ubuntu2"
  },
  {
    "package": "xkb-data",
    "arch": "",
    "version": "2.29-2"
  },
  {
    "package": "xxd",
    "arch": "amd64",
    "version": "2:8.1.2269-1ubuntu5.11"
  },
  {
    "package": "xz-utils",
    "arch": "amd64",
    "version": "5.2.4-1ubuntu1.1"
  },
  {
    "package": "zerofree",
    "arch": "amd64",
    "version": "1.1.1-1"
  },
  {
    "package": "zlib1g",
    "arch": "amd64",
    "version": "1:1.2.11.dfsg-2ubuntu1.5"
  }
]
